<?xml version="1.0" encoding="UTF-8" standalone="no"?>
<svg
   xmlns:dc="http://purl.org/dc/elements/1.1/"
   xmlns:cc="http://creativecommons.org/ns#"
   xmlns:rdf="http://www.w3.org/1999/02/22-rdf-syntax-ns#"
   xmlns:svg="http://www.w3.org/2000/svg"
   xmlns="http://www.w3.org/2000/svg"
   xmlns:sodipodi="http://sodipodi.sourceforge.net/DTD/sodipodi-0.dtd"
   xmlns:inkscape="http://www.inkscape.org/namespaces/inkscape"
   width="633pt"
   height="601pt"
   viewBox="0 0 633 601"
   version="1.1"
   id="svg2"
   inkscape:version="0.91 r13725"
   sodipodi:docname="ugtu.svg"
   inkscape:export-filename="C:\Users\mbarabanov\Downloads\ugtu.png"
   inkscape:export-xdpi="299.97482"
   inkscape:export-ydpi="299.97482">
  <metadata
     id="metadata178">
    <rdf:RDF>
      <cc:Work
         rdf:about="">
        <dc:format>image/svg+xml</dc:format>
        <dc:type
           rdf:resource="http://purl.org/dc/dcmitype/StillImage" />
      </cc:Work>
    </rdf:RDF>
  </metadata>
  <defs
     id="defs176" />
  <sodipodi:namedview
     pagecolor="#ffffff"
     bordercolor="#666666"
     borderopacity="1"
     objecttolerance="10"
     gridtolerance="10"
     guidetolerance="10"
     inkscape:pageopacity="0"
     inkscape:pageshadow="2"
     inkscape:window-width="1920"
     inkscape:window-height="1017"
     id="namedview174"
     showgrid="false"
     showguides="true"
     inkscape:guide-bbox="true"
     inkscape:zoom="0.62828619"
     inkscape:cx="-483.09982"
     inkscape:cy="564.32502"
     inkscape:window-x="1912"
     inkscape:window-y="-8"
     inkscape:window-maximized="1"
     inkscape:current-layer="svg2">
    <sodipodi:guide
       position="410.00424,115.87076"
       orientation="1,0"
       id="guide3543" />
  </sodipodi:namedview>
  <path
     fill="#0c164d"
     d=" M 316.08 30.33 C 317.81 30.24 319.54 30.21 321.27 30.18 C 321.69 31.26 322.19 32.30 322.80 33.29 C 324.22 33.97 325.81 33.61 327.32 33.54 C 327.75 32.44 328.18 31.35 328.61 30.26 C 330.37 30.32 332.12 30.40 333.88 30.49 C 332.33 39.33 317.53 39.14 316.08 30.33 Z"
     id="path6" />
  <path
     fill="#0f194e"
     d=" M 298.45 39.58 C 300.44 39.43 302.43 39.31 304.43 39.17 C 305.51 47.83 306.19 56.55 307.31 65.21 C 305.37 65.46 303.42 65.68 301.48 65.84 C 300.64 61.26 300.56 56.60 299.85 52.01 C 299.46 47.86 299.10 43.70 298.45 39.58 Z"
     id="path8" />
  <path
     fill="#0f194e"
     d=" M 314.21 38.73 C 316.07 38.73 317.92 38.73 319.79 38.73 C 319.59 44.06 319.52 49.40 319.69 54.74 C 323.19 49.48 326.13 43.88 329.60 38.60 C 331.65 38.75 333.71 38.95 335.76 39.23 C 335.72 47.91 335.47 56.59 335.27 65.27 C 333.37 65.29 331.46 65.30 329.57 65.31 C 329.64 59.46 329.80 53.60 329.59 47.75 C 326.00 53.48 322.81 59.44 319.28 65.21 C 317.38 65.19 315.48 65.19 313.59 65.18 C 313.56 56.35 314.35 47.56 314.21 38.73 Z"
     id="path10" />
  <path
     fill="#0f194e"
     d=" M 276.29 41.88 C 278.10 41.75 279.92 41.63 281.74 41.50 C 282.30 44.79 282.61 48.11 282.91 51.43 C 287.22 50.93 292.69 49.22 296.10 52.90 C 299.27 56.91 298.47 64.15 293.38 66.26 C 288.65 67.82 283.58 67.52 278.71 68.31 C 278.12 59.48 276.45 50.73 276.29 41.88 Z"
     id="path12" />
  <path
     fill="#0f194e"
     d=" M 264.59 44.13 C 265.16 43.83 265.73 43.52 266.31 43.22 C 268.64 51.80 270.24 60.56 272.43 69.18 C 270.49 69.65 268.55 70.13 266.62 70.62 C 265.72 66.80 264.86 62.97 264.05 59.14 C 261.03 59.79 258.03 60.49 255.00 61.07 C 255.61 64.95 256.56 68.78 257.51 72.60 C 255.56 73.04 253.61 73.48 251.65 73.87 C 250.00 65.22 247.16 56.77 246.25 48.01 C 247.96 47.69 249.67 47.34 251.38 46.99 C 252.40 50.06 253.09 53.23 253.76 56.39 C 256.82 55.74 259.86 55.04 262.89 54.29 C 262.18 51.13 261.41 47.99 260.98 44.78 C 262.18 44.55 263.38 44.34 264.59 44.13 Z"
     id="path14" />
  <path
     fill="#0f194e"
     d=" M 366.08 42.36 C 372.97 43.34 379.71 45.17 386.60 46.11 C 386.41 47.66 386.22 49.22 386.04 50.78 C 383.50 50.67 381.01 50.16 378.56 49.56 C 376.92 56.57 375.77 63.68 374.32 70.73 C 372.37 70.39 370.42 70.00 368.49 69.61 C 369.29 65.68 370.07 61.75 370.71 57.79 C 370.81 57.59 371.01 57.19 371.12 56.99 C 371.47 54.16 372.08 51.38 372.62 48.58 C 370.19 48.00 367.73 47.54 365.27 47.10 C 365.54 45.52 365.81 43.94 366.08 42.36 Z"
     id="path16" />
  <path
     fill="#0f194e"
     d=" M 385.97 73.21 C 387.74 64.63 390.67 56.33 392.88 47.85 C 398.33 49.15 403.69 50.80 409.08 52.34 C 408.82 53.87 408.52 55.40 408.26 56.93 C 404.55 56.24 400.96 55.06 397.32 54.09 C 396.85 55.61 396.40 57.14 395.98 58.67 C 399.28 59.67 402.61 60.58 405.92 61.58 C 405.52 63.06 405.11 64.54 404.69 66.02 C 401.28 65.41 397.97 64.40 394.65 63.43 C 393.99 65.62 393.35 67.81 392.65 69.99 C 396.30 71.00 399.95 72.03 403.54 73.22 C 403.06 74.74 402.59 76.26 402.14 77.78 C 396.77 76.19 391.37 74.69 385.97 73.21 Z"
     id="path18" />
  <path
     fill="#0f194e"
     d=" M 231.11 52.76 C 233.06 52.16 235.01 51.54 236.99 51.06 C 239.38 59.47 242.96 67.51 244.96 76.02 C 243.16 76.57 241.37 77.16 239.59 77.74 C 238.36 73.98 237.32 70.13 235.52 66.59 C 232.70 67.69 229.85 68.69 227.00 69.70 C 228.24 73.35 229.51 76.99 230.82 80.61 C 228.91 81.32 226.98 81.97 225.06 82.60 C 222.39 74.25 219.53 65.96 216.64 57.69 C 218.53 57.09 220.41 56.47 222.31 55.88 C 223.33 58.88 224.39 61.88 225.41 64.89 C 228.43 64.03 231.40 63.00 234.38 61.99 C 233.26 58.92 232.26 55.82 231.11 52.76 Z"
     id="path20" />
  <path
     fill="#0f194e"
     d=" M 414.40 53.79 C 416.60 54.70 418.81 55.58 421.02 56.47 C 421.42 59.68 421.96 62.87 422.62 66.04 C 425.10 64.16 427.47 62.13 430.07 60.41 C 432.03 60.04 433.87 61.49 435.77 61.92 C 435.73 62.22 435.66 62.81 435.62 63.11 C 431.80 65.78 428.04 68.55 424.27 71.30 C 425.13 76.53 426.23 81.72 427.28 86.92 C 425.05 86.18 422.85 85.35 420.70 84.42 C 420.31 81.04 419.65 77.71 419.09 74.36 C 416.41 76.56 413.63 78.62 410.96 80.83 C 408.91 80.00 406.87 79.19 404.83 78.36 C 409.14 75.36 413.33 72.20 417.53 69.04 C 416.47 63.96 415.53 58.85 414.40 53.79 Z"
     id="path22" />
  <path
     fill="#ffffff"
     d=" M 283.51 55.88 C 286.36 55.71 292.03 54.48 291.74 59.01 C 291.87 62.86 286.98 62.46 284.35 62.90 C 284.03 60.57 283.73 58.23 283.51 55.88 Z"
     id="path24" />
  <path
     fill="#0f194e"
     d=" M 193.92 67.21 C 199.11 64.93 204.30 62.64 209.45 60.27 C 210.12 61.80 210.79 63.32 211.47 64.85 C 207.95 66.27 204.46 67.76 201.11 69.55 C 201.87 70.94 202.64 72.33 203.42 73.71 C 206.45 72.31 209.50 70.96 212.53 69.55 C 213.30 71.01 214.04 72.48 214.78 73.95 C 211.59 75.35 208.43 76.81 205.21 78.14 C 206.12 80.27 207.07 82.38 208.00 84.50 C 211.41 82.92 214.86 81.42 218.28 79.87 C 218.89 81.39 219.51 82.91 220.09 84.44 C 214.89 86.68 209.77 89.14 204.49 91.21 C 201.06 83.17 197.28 75.28 193.92 67.21 Z"
     id="path26" />
  <path
     fill="#0f194e"
     d=" M 430.56 88.61 C 434.64 80.84 438.42 72.91 442.45 65.11 C 444.20 66.04 445.97 66.96 447.74 67.86 C 446.22 70.68 444.81 73.56 443.31 76.40 C 446.07 77.94 448.92 79.33 451.81 80.62 C 453.17 77.75 454.61 74.91 456.03 72.06 C 457.84 72.90 459.65 73.78 461.45 74.67 C 457.40 82.47 453.45 90.31 449.54 98.17 C 447.75 97.26 445.97 96.33 444.20 95.41 C 446.05 92.00 447.73 88.50 449.51 85.05 C 446.73 83.63 443.96 82.22 441.09 81.01 C 439.36 84.39 437.67 87.79 435.95 91.17 C 434.14 90.34 432.34 89.49 430.56 88.61 Z"
     id="path28" />
  <path
     fill="#0f194e"
     d=" M 169.30 80.76 C 174.12 78.17 178.68 74.90 184.06 73.54 C 188.45 74.51 190.89 79.46 188.59 83.48 C 190.33 83.61 192.30 83.22 193.81 84.33 C 197.98 87.09 197.98 94.08 193.87 96.91 C 190.18 99.51 186.07 101.43 182.14 103.63 C 177.91 95.98 173.72 88.30 169.30 80.76 Z"
     id="path30" />
  <path
     fill="#ffffff"
     d=" M 176.84 81.78 C 178.66 80.92 180.49 80.07 182.35 79.29 C 183.41 80.62 185.03 81.94 184.26 83.86 C 182.89 85.05 181.31 85.95 179.79 86.93 C 178.79 85.22 177.80 83.51 176.84 81.78 Z"
     id="path32" />
  <path
     fill="#0f194e"
     d=" M 469.92 79.31 C 471.53 80.34 473.15 81.36 474.78 82.36 C 472.00 86.90 468.93 91.26 466.30 95.89 C 471.90 93.26 477.29 90.22 482.86 87.52 C 484.58 88.68 486.33 89.81 488.08 90.94 C 483.41 98.34 478.60 105.65 473.96 113.09 C 472.29 112.10 470.65 111.09 469.00 110.08 C 472.18 105.10 475.47 100.18 478.50 95.10 C 472.33 98.06 466.46 101.58 460.29 104.53 C 458.79 103.55 457.30 102.58 455.78 101.63 C 460.25 94.04 465.24 86.77 469.92 79.31 Z"
     id="path34" />
  <path
     fill="#0f194e"
     d=" M 147.08 95.64 C 152.81 91.68 158.58 87.78 164.33 83.84 C 165.25 85.19 166.17 86.55 167.08 87.91 C 165.03 89.28 163.00 90.68 160.95 92.04 C 164.99 98.01 169.05 103.96 173.11 109.91 C 171.44 110.97 169.78 112.05 168.10 113.09 C 164.16 107.13 160.03 101.29 156.04 95.35 C 154.02 96.80 151.96 98.20 149.93 99.64 C 148.99 98.29 148.04 96.96 147.08 95.64 Z"
     id="path36" />
  <path
     fill="#ffffff"
     d=" M 181.86 90.72 C 184.36 89.66 188.15 86.36 190.37 89.46 C 192.63 93.29 187.70 95.17 185.14 96.68 C 184.05 94.68 182.95 92.71 181.86 90.72 Z"
     id="path38" />
  <path
     fill="#0f194e"
     d=" M 486.59 107.09 C 487.97 102.59 491.86 99.49 494.39 95.64 C 496.09 96.75 497.75 97.93 499.41 99.12 C 497.27 101.96 494.34 104.44 493.22 107.90 C 492.89 111.09 496.26 112.59 498.50 114.03 C 501.05 110.86 503.59 107.68 506.07 104.46 C 507.60 105.71 509.14 106.95 510.71 108.17 C 505.16 115.04 499.77 122.04 494.24 128.93 C 492.74 127.72 491.26 126.51 489.75 125.35 C 491.59 122.68 493.62 120.15 495.74 117.70 C 491.81 115.31 485.94 112.61 486.59 107.09 Z"
     id="path40" />
  <path
     fill="#0f194e"
     d=" M 132.09 111.99 C 131.76 105.34 138.30 100.88 144.11 99.51 C 145.53 101.19 146.97 102.86 148.43 104.51 C 144.83 104.45 140.30 104.85 138.52 108.53 C 136.35 114.12 141.37 120.66 146.93 121.53 C 151.92 121.98 154.38 116.75 154.84 112.56 C 156.15 114.32 158.27 115.75 158.68 117.98 C 156.87 122.05 153.44 125.58 149.14 126.96 C 144.99 128.51 140.52 126.23 137.49 123.44 C 134.54 120.37 131.77 116.46 132.09 111.99 Z"
     id="path42" />
  <path
     d=" M 326.19 110.14 C 337.18 117.41 342.37 130.32 344.52 142.83 C 345.18 140.11 346.70 137.78 348.93 136.09 C 348.02 140.38 348.62 145.00 351.33 148.56 C 359.49 159.71 368.02 170.89 373.15 183.85 C 375.68 192.32 374.60 201.85 370.75 209.77 C 368.88 212.93 366.56 217.29 362.18 216.57 C 366.53 210.61 369.37 203.44 369.25 195.99 C 368.21 187.92 362.97 181.27 357.69 175.42 C 355.42 173.10 354.35 169.99 353.08 167.08 C 353.61 175.95 360.96 181.90 364.05 189.78 C 366.90 195.42 365.91 202.06 363.99 207.83 C 363.65 207.70 362.97 207.45 362.63 207.32 C 361.94 207.50 360.55 207.85 359.86 208.03 C 360.19 208.33 360.85 208.91 361.18 209.20 C 357.71 209.93 357.03 215.90 352.91 214.03 C 348.97 213.37 345.02 212.88 341.06 212.43 C 345.63 208.65 350.23 204.08 351.41 198.04 C 352.57 187.80 346.33 178.91 343.73 169.40 C 342.16 161.73 342.64 153.87 342.29 146.10 C 341.09 153.60 339.22 161.29 340.86 168.88 C 342.81 177.09 345.75 185.19 346.18 193.68 C 345.46 199.27 343.15 204.55 340.40 209.43 C 339.36 210.25 338.41 211.18 337.74 212.34 C 334.34 212.52 330.94 212.46 327.54 212.46 C 325.14 208.67 323.88 204.35 323.07 199.98 C 322.38 202.50 321.80 205.12 322.34 207.73 C 321.36 207.76 320.37 207.78 319.39 207.81 C 315.33 203.88 311.98 198.89 311.47 193.12 C 310.40 182.65 313.26 172.36 314.67 162.07 C 311.27 172.68 307.44 183.57 308.27 194.89 C 309.02 202.61 314.70 208.57 320.54 213.11 C 317.00 213.34 313.52 214.10 310.00 214.47 C 307.89 214.92 306.92 212.54 305.70 211.32 C 302.30 207.40 302.72 201.88 302.33 197.05 C 299.59 203.40 300.70 210.63 304.68 216.20 C 302.62 216.42 300.02 217.56 298.31 215.81 C 294.44 212.29 291.81 207.26 291.65 201.98 C 291.44 194.91 293.21 188.00 294.72 181.15 C 295.49 178.50 294.56 175.81 294.24 173.17 C 295.81 173.89 297.38 174.64 298.94 175.41 C 303.73 165.83 312.37 159.11 318.22 150.28 C 322.87 143.39 323.31 134.70 323.23 126.66 C 324.10 127.89 324.95 129.13 325.80 130.39 C 328.54 124.02 327.60 116.73 326.19 110.14 Z"
     id="path44"
     fill="#bf1919" />
  <path
     fill="#0f194e"
     d=" M 498.51 133.17 C 504.74 126.93 510.65 120.38 516.82 114.07 C 520.90 118.03 525.06 121.91 529.11 125.90 C 527.99 127.07 526.88 128.24 525.78 129.42 C 523.05 126.86 520.41 124.21 517.56 121.79 C 516.49 122.92 515.42 124.06 514.36 125.20 C 516.78 127.64 519.27 130.01 521.87 132.28 C 520.69 133.47 519.53 134.67 518.35 135.86 C 515.90 133.47 513.42 131.11 510.93 128.76 C 509.35 130.43 507.77 132.10 506.23 133.81 C 508.95 136.27 511.59 138.83 514.35 141.27 C 513.23 142.53 512.11 143.77 510.99 145.02 C 506.91 140.98 502.71 137.07 498.51 133.17 Z"
     id="path46" />
  <path
     fill="#0f194e"
     d=" M 109.07 128.76 C 113.44 124.71 117.06 119.29 123.13 117.67 C 127.41 118.78 131.65 122.20 131.71 126.95 C 132.19 131.33 128.53 134.35 125.75 137.12 C 127.78 139.14 129.81 141.16 131.88 143.14 C 130.30 144.23 129.20 146.89 127.17 146.79 C 120.93 140.99 115.27 134.60 109.07 128.76 Z"
     id="path48" />
  <path
     fill="#ffffff"
     d=" M 116.65 127.73 C 118.31 126.48 119.73 124.43 121.95 124.24 C 124.27 124.04 125.25 126.53 126.52 127.99 C 125.58 129.84 124.59 131.76 122.86 132.99 C 120.23 132.27 118.73 129.40 116.65 127.73 Z"
     id="path50" />
  <path
     fill="#0f194e"
     d=" M 523.90 138.89 C 527.45 135.50 532.83 133.16 537.64 135.17 C 542.33 136.91 545.09 141.49 546.53 146.05 C 544.78 147.58 543.04 149.14 541.25 150.64 C 541.27 149.04 541.31 147.44 541.38 145.85 C 540.10 143.13 538.15 140.16 534.75 140.25 C 529.77 140.74 524.96 144.94 524.45 150.02 C 524.54 154.92 529.73 157.07 533.93 157.20 C 532.28 158.66 530.62 160.12 528.96 161.58 C 524.71 159.71 520.57 156.69 519.17 152.05 C 517.40 147.19 520.26 142.05 523.90 138.89 Z"
     id="path52" />
  <path
     fill="#0f194e"
     d=" M 99.27 140.05 C 107.78 143.19 116.17 146.67 124.58 150.07 C 124.70 152.19 122.21 153.38 121.16 155.00 C 119.48 154.23 117.80 153.46 116.14 152.67 C 114.12 155.00 112.14 157.34 110.26 159.77 C 111.29 161.39 112.29 163.03 113.24 164.70 C 111.92 166.08 110.62 167.49 109.28 168.87 C 104.67 160.86 99.53 153.17 94.92 145.17 C 96.39 143.48 97.84 141.77 99.27 140.05 Z"
     id="path54" />
  <path
     fill="#ffffff"
     d=" M 102.25 147.06 C 105.40 148.26 108.51 149.60 111.60 150.95 C 110.23 152.42 108.86 153.90 107.43 155.31 C 105.75 152.53 103.94 149.83 102.25 147.06 Z"
     id="path56" />
  <path
     fill="#0f194e"
     d=" M 530.58 166.69 C 537.68 161.40 544.84 156.19 552.05 151.05 C 552.99 152.47 554.05 153.83 554.86 155.34 C 555.02 156.64 553.52 157.07 552.77 157.79 C 550.67 159.27 548.57 160.76 546.50 162.28 C 547.55 162.94 548.62 163.60 549.70 164.24 C 552.53 163.53 555.41 162.87 558.35 162.84 C 561.11 163.17 562.68 165.66 564.17 167.73 C 562.75 168.74 561.34 169.78 559.94 170.82 C 557.38 166.92 552.83 169.00 549.03 168.89 C 547.38 173.70 545.58 178.46 543.98 183.30 C 543.73 183.38 543.22 183.54 542.97 183.62 C 541.74 181.81 540.49 180.02 539.26 178.23 C 540.66 174.68 542.16 171.17 543.35 167.55 C 543.71 166.67 543.61 165.85 543.04 165.08 C 539.87 166.88 537.10 169.28 534.06 171.28 C 532.90 169.74 531.75 168.21 530.58 166.69 Z"
     id="path58" />
  <path
     fill="#0f194e"
     d=" M 84.82 157.71 C 91.13 161.20 96.73 165.80 102.85 169.59 C 103.13 169.07 103.69 168.03 103.97 167.51 C 106.93 169.67 109.95 171.73 113.02 173.74 C 112.13 175.26 111.21 176.75 110.29 178.26 C 108.48 177.17 106.70 176.03 104.91 174.90 C 102.13 178.92 99.41 182.99 96.56 186.97 C 98.28 188.17 100.01 189.38 101.72 190.60 C 100.71 192.01 99.70 193.44 98.71 194.87 C 95.73 193.05 92.85 191.07 89.99 189.08 C 90.95 186.73 88.92 184.97 87.66 183.27 C 84.11 178.85 79.70 175.22 75.07 171.99 C 78.35 167.25 81.60 162.50 84.82 157.71 Z"
     id="path60" />
  <path
     fill="#ffffff"
     d=" M 82.23 170.16 C 83.44 168.54 84.63 166.90 85.81 165.26 C 90.22 168.35 94.67 171.41 99.17 174.37 C 97.42 176.97 96.04 179.96 93.61 182.02 C 90.28 177.64 86.68 173.44 82.23 170.16 Z"
     id="path62" />
  <path
     fill="#0f194e"
     d=" M 545.38 187.12 C 552.96 182.88 560.28 178.17 567.94 174.09 C 569.59 175.03 570.01 177.32 571.02 178.87 C 566.44 181.42 561.92 184.08 557.41 186.75 C 563.39 187.04 569.38 186.66 575.36 186.88 C 577.05 188.32 577.92 190.47 579.18 192.27 C 571.53 196.75 563.97 201.41 556.16 205.62 C 555.23 204.00 554.27 202.40 553.31 200.80 C 558.38 197.83 563.54 195.01 568.46 191.78 C 561.64 191.42 554.82 191.89 548.01 191.77 C 547.14 190.21 546.26 188.66 545.38 187.12 Z"
     id="path64" />
  <path
     fill="#0f194e"
     d=" M 66.85 184.90 C 67.86 183.09 68.88 181.28 69.88 179.47 C 74.41 185.42 79.29 191.09 83.93 196.96 C 85.23 198.75 86.75 200.74 86.41 203.10 C 86.09 205.89 84.24 208.18 83.00 210.61 C 81.35 209.74 79.71 208.87 78.05 208.02 C 79.42 206.04 80.50 203.87 81.30 201.59 C 73.83 200.36 66.25 200.82 58.73 200.13 C 59.60 198.23 60.52 196.36 61.47 194.51 C 66.13 194.60 70.74 195.56 75.42 195.31 C 72.72 191.71 69.74 188.34 66.85 184.90 Z"
     id="path66" />
  <path
     fill="#0c164c"
     d=" M 599.27 214.70 C 590.52 217.61 584.30 203.30 592.13 198.76 C 592.85 200.22 593.58 201.69 594.33 203.15 C 593.47 204.33 591.81 205.30 592.12 206.97 C 592.51 208.18 593.16 209.28 593.74 210.41 C 594.99 210.33 596.25 210.24 597.51 210.16 C 598.10 211.66 598.70 213.18 599.27 214.70 Z"
     id="path68" />
  <path
     fill="#0f194e"
     d=" M 559.32 211.39 C 567.26 207.62 575.37 204.22 583.30 200.43 C 584.14 202.15 584.97 203.88 585.81 205.61 C 581.06 207.97 576.09 209.86 571.38 212.31 C 577.46 213.50 583.69 213.40 589.80 214.45 C 590.60 216.34 591.40 218.24 592.18 220.15 C 584.16 223.67 576.29 227.53 568.17 230.84 C 567.42 229.13 566.66 227.43 565.89 225.74 C 571.16 223.27 576.53 221.03 581.76 218.45 C 575.11 217.44 568.39 217.11 561.70 216.49 C 560.90 214.79 560.10 213.09 559.32 211.39 Z"
     id="path70" />
  <path
     fill="#0f194e"
     d=" M 51.62 218.77 C 50.74 213.44 54.02 208.47 57.83 205.07 C 59.95 205.94 62.05 206.87 64.14 207.82 C 61.50 209.12 58.35 210.37 57.34 213.44 C 55.70 216.43 58.06 219.79 60.50 221.50 C 64.03 223.95 69.58 225.57 72.73 221.66 C 75.42 218.97 74.28 215.00 73.32 211.81 C 75.37 212.70 77.40 213.62 79.41 214.61 C 79.63 220.58 77.04 227.67 70.84 229.60 C 63.12 231.30 53.50 226.88 51.62 218.77 Z"
     id="path72" />
  <path
     d=" M 303.49 221.43 C 310.94 218.57 319.12 218.18 327.03 218.09 C 334.32 217.26 341.66 218.13 348.96 218.47 C 354.04 219.16 359.41 219.42 364.07 221.76 C 368.08 225.43 370.83 230.22 373.87 234.67 C 363.89 231.48 353.32 231.58 342.98 230.75 C 336.15 230.55 329.30 230.49 322.47 230.83 C 312.45 231.74 302.05 231.34 292.52 235.00 C 292.52 234.84 292.52 234.53 292.51 234.37 C 296.40 230.27 298.76 224.72 303.49 221.43 Z"
     id="path74"
     fill="#0f194e" />
  <path
     fill="#0f194e"
     d=" M 48.42 232.54 C 54.20 230.44 60.90 232.67 65.34 236.65 C 71.21 242.23 68.54 253.22 61.19 256.12 C 55.57 258.35 49.07 256.09 44.57 252.44 C 38.22 247.01 40.81 235.42 48.42 232.54 Z"
     id="path76" />
  <path
     d=" M 292.54 240.70 C 309.60 234.42 328.18 235.00 346.07 235.47 C 355.48 236.10 365.01 237.24 373.90 240.55 C 372.03 250.98 369.27 261.24 367.24 271.64 C 356.21 268.00 344.55 267.22 333.02 266.85 C 321.48 267.21 309.83 268.02 298.79 271.63 C 296.64 261.33 294.83 250.97 292.54 240.70 Z"
     id="path78"
     fill="#0f194e" />
  <path
     fill="#ffffff"
     d=" M 50.72 237.86 C 54.77 237.59 59.16 239.02 62.09 241.90 C 64.74 244.52 63.42 249.49 59.84 250.47 C 55.19 251.43 49.85 249.79 46.84 246.05 C 44.80 242.81 46.98 238.39 50.72 237.86 Z"
     id="path80" />
  <path
     d=" M 316.41 240.34 C 320.69 239.83 324.99 239.58 329.30 239.62 C 328.65 247.21 328.67 254.83 328.62 262.44 C 325.19 262.58 321.77 262.75 318.35 262.91 C 317.40 255.42 317.27 247.85 316.41 240.34 Z"
     id="path82"
     fill="#ffffff" />
  <path
     d=" M 338.19 239.61 C 342.21 239.61 346.24 239.85 350.23 240.33 C 348.98 247.81 348.72 255.42 347.64 262.92 C 344.62 262.76 341.60 262.60 338.58 262.43 C 338.49 254.82 338.38 247.21 338.19 239.61 Z"
     id="path84"
     fill="#ffffff" />
  <path
     d=" M 359.68 241.38 C 362.58 241.79 365.47 242.25 368.38 242.67 C 366.68 250.38 365.40 258.18 363.98 265.95 C 360.99 265.49 358.04 264.85 355.10 264.17 C 356.60 256.56 358.16 248.97 359.68 241.38 Z"
     id="path86"
     fill="#ffffff" />
  <path
     d=" M 298.40 242.66 C 301.22 242.24 304.04 241.78 306.87 241.42 C 308.14 249.03 309.70 256.58 311.00 264.19 C 308.24 264.83 305.48 265.46 302.71 266.02 C 301.22 258.24 299.92 250.43 298.40 242.66 Z"
     id="path88"
     fill="#ffffff" />
  <path
     d="m 286.47,242.42 c 7.24,36.27 7.24,36.27 7.24,36.27 -71.06,106.02 0,0 -71.06,106.02 -31.43,0.03 0,0 -31.43,0.03 95.25,-142.32 0,0 95.25,-142.32 z"
     id="path90"
     inkscape:connector-curvature="0"
     style="fill:#3e4da1"
     sodipodi:nodetypes="ccccc" />
  <path
     d="m 379.96,242.93 c 95.68,142.67 0,0 95.68,142.67 l -31.52,-0.04 -71.54,-109.45 c 7.38,-33.18 0,0 7.38,-33.18 z"
     id="path92"
     inkscape:connector-curvature="0"
     style="fill:#3e4da1"
     sodipodi:nodetypes="ccccc" />
  <path
     fill="#0f194e"
     d=" M 602.42 249.36 C 603.05 251.46 603.57 253.58 603.93 255.75 C 600.29 258.60 596.70 261.51 593.07 264.38 C 597.51 265.19 602.01 265.64 606.50 266.18 C 607.05 268.16 607.57 270.15 608.02 272.17 C 601.27 271.27 594.57 270.10 587.83 269.19 C 585.10 268.74 582.00 268.40 580.08 266.15 C 578.25 263.79 578.05 260.68 577.45 257.86 C 579.26 257.59 581.09 257.33 582.93 257.17 C 583.24 259.44 583.80 261.68 584.95 263.69 C 590.97 259.17 596.70 254.26 602.42 249.36 Z"
     id="path94" />
  <path
     fill="#0f194e"
     d=" M 36.68 257.88 C 37.08 257.49 37.49 257.11 37.89 256.74 C 39.22 257.08 40.55 257.43 41.89 257.77 C 40.94 261.31 40.17 264.88 39.33 268.44 C 46.30 270.30 53.43 271.52 60.38 273.51 C 59.91 275.30 59.48 277.11 59.08 278.93 C 50.39 277.32 41.82 275.10 33.19 273.16 C 34.42 268.08 35.65 263.00 36.68 257.88 Z"
     id="path96" />
  <path
     d=" M 301.20 277.00 C 316.70 271.06 333.82 270.45 350.10 272.93 C 355.14 273.72 360.04 275.17 364.80 276.98 C 360.94 306.70 356.29 336.33 352.18 366.03 C 350.89 375.99 348.70 385.89 348.81 395.99 C 347.28 434.00 345.46 472.01 344.01 510.02 C 342.79 511.96 340.14 512.12 338.09 512.61 C 333.21 513.12 328.04 513.28 323.43 511.34 C 322.50 511.04 322.02 510.42 321.99 509.47 C 320.53 468.98 318.44 428.52 316.93 388.03 C 311.96 350.99 306.17 314.04 301.20 277.00 Z"
     id="path98"
     fill="#0f194e" />
  <path
     fill="#0f194e"
     d=" M 583.24 281.74 C 592.03 280.58 600.75 278.77 609.59 278.15 C 609.68 280.02 609.76 281.90 609.87 283.79 C 606.72 284.25 603.55 284.55 600.47 285.34 C 600.97 288.36 601.49 291.38 601.97 294.40 C 605.14 293.96 608.30 293.44 611.46 292.88 C 611.82 294.87 612.18 296.85 612.52 298.85 C 603.83 300.03 595.15 301.29 586.50 302.77 C 586.06 300.78 585.67 298.79 585.34 296.79 C 589.06 296.37 592.73 295.64 596.46 295.30 C 596.64 295.04 596.99 294.54 597.17 294.28 C 596.46 291.44 596.06 288.55 595.56 285.67 C 591.73 286.57 587.81 287.02 583.94 287.67 C 583.69 285.69 583.45 283.72 583.24 281.74 Z"
     id="path100" />
  <path
     fill="#0f194e"
     d=" M 28.38 306.64 C 37.15 307.09 45.91 307.42 54.67 307.87 C 54.62 309.76 54.58 311.64 54.53 313.54 C 48.62 313.71 42.76 312.73 36.86 312.80 C 42.27 316.71 48.13 319.95 53.75 323.54 C 53.78 325.51 53.83 327.49 53.90 329.47 C 45.13 328.93 36.35 328.44 27.56 328.32 C 27.48 326.32 27.43 324.31 27.39 322.32 C 32.76 322.41 38.12 323.33 43.49 322.73 C 38.27 319.59 33.20 316.20 28.06 312.94 C 28.14 310.84 28.28 308.74 28.38 306.64 Z"
     id="path102" />
  <path
     fill="#0d174d"
     d=" M 19.70 308.06 C 23.24 309.07 26.37 312.08 25.81 316.05 C 26.58 320.71 23.58 325.42 18.67 325.72 C 18.73 324.08 18.80 322.44 18.87 320.81 C 20.60 319.99 23.18 319.49 22.70 316.99 C 23.22 314.67 20.83 313.97 19.23 313.15 C 19.37 311.45 19.53 309.75 19.70 308.06 Z"
     id="path104" />
  <path
     fill="#0f194e"
     d=" M 586.85 309.26 C 589.93 309.25 593.02 309.29 596.11 309.17 C 601.81 308.22 607.61 308.70 613.36 308.28 C 613.40 310.11 613.46 311.96 613.53 313.80 C 608.21 314.28 602.88 314.48 597.56 314.77 C 602.85 317.78 608.31 320.47 613.73 323.24 C 613.84 325.33 613.99 327.42 614.16 329.52 C 605.39 330.27 596.56 330.72 587.75 330.63 C 587.63 328.87 587.52 327.11 587.42 325.36 C 593.33 324.48 599.33 324.91 605.27 324.28 C 599.26 320.86 592.86 318.18 586.86 314.74 C 586.87 312.91 586.86 311.08 586.85 309.26 Z"
     id="path106" />
  <path
     fill="#0f194e"
     d=" M 27.39 336.82 C 36.21 336.68 45.00 335.94 53.80 335.48 C 53.79 337.43 53.78 339.37 53.75 341.33 C 48.03 341.70 42.27 341.48 36.60 342.53 C 42.61 345.47 48.66 348.34 54.67 351.28 C 54.85 352.98 55.08 354.68 55.16 356.39 C 54.54 357.50 53.13 357.03 52.11 357.23 C 44.27 357.51 36.45 358.07 28.63 358.50 C 28.56 356.57 28.50 354.65 28.43 352.73 C 33.70 352.19 39.07 352.75 44.27 351.51 C 38.74 348.76 33.16 346.11 27.71 343.19 C 27.59 341.06 27.47 338.94 27.39 336.82 Z"
     id="path108" />
  <path
     fill="#0f194e"
     d=" M 587.56 337.22 C 596.35 337.28 605.13 337.80 613.89 338.56 C 613.59 343.74 614.51 349.36 612.21 354.18 C 609.67 358.32 603.70 356.82 601.31 353.31 C 600.04 356.04 597.25 358.30 594.09 357.60 C 590.32 357.24 587.24 353.82 587.29 350.05 C 587.17 345.77 587.59 341.50 587.56 337.22 Z"
     id="path110" />
  <path
     fill="#ffffff"
     d=" M 591.83 343.39 C 594.18 343.38 596.53 343.45 598.88 343.54 C 598.72 346.16 598.60 348.85 597.50 351.29 C 596.48 351.30 594.46 351.33 593.44 351.34 C 591.55 349.07 591.65 346.16 591.83 343.39 Z"
     id="path112" />
  <path
     fill="#ffffff"
     d=" M 603.34 343.78 C 605.36 343.96 607.39 344.16 609.42 344.38 C 609.04 346.39 608.61 348.39 608.16 350.38 C 606.54 350.30 604.66 350.73 603.51 349.28 C 603.27 347.45 603.33 345.61 603.34 343.78 Z"
     id="path114" />
  <path
     fill="#0f194e"
     d=" M 43.44 371.61 C 47.56 368.05 51.49 364.26 55.39 360.46 C 55.69 362.87 56.11 365.27 56.51 367.67 C 53.42 371.19 48.61 373.42 46.77 377.87 C 50.56 377.66 54.28 376.96 58.00 376.27 C 58.25 378.25 58.54 380.22 58.82 382.20 C 50.11 383.66 41.37 384.94 32.66 386.36 C 32.43 384.42 32.24 382.48 32.04 380.55 C 35.73 379.78 39.53 379.55 43.11 378.30 C 40.50 374.80 35.85 374.73 32.33 372.71 C 29.92 371.30 29.94 368.22 29.37 365.83 C 31.19 365.60 33.01 365.38 34.83 365.17 C 34.94 369.84 40.32 369.83 43.44 371.61 Z"
     id="path116" />
  <path
     fill="#0f194e"
     d=" M 585.84 362.21 C 594.57 363.20 603.22 364.84 611.95 365.88 C 611.52 371.57 610.51 377.21 609.59 382.84 C 608.05 382.61 606.52 382.39 604.99 382.20 C 605.29 378.43 605.91 374.71 606.42 370.96 C 604.81 370.78 603.21 370.59 601.61 370.40 C 601.10 373.85 600.56 377.30 600.11 380.77 C 598.45 380.41 596.80 380.03 595.18 379.63 C 595.75 376.34 596.32 373.04 596.71 369.73 C 594.49 369.34 592.28 368.97 590.07 368.59 C 589.45 372.26 588.76 375.93 588.40 379.65 C 586.75 379.42 585.11 379.21 583.48 378.96 C 584.24 373.37 585.30 367.82 585.84 362.21 Z"
     id="path118" />
  <path
     fill="#0f194e"
     d=" M 582.34 384.27 C 590.92 386.31 599.53 388.27 608.07 390.48 C 606.67 395.01 606.36 399.94 604.11 404.16 C 600.73 410.06 591.23 407.93 588.91 402.16 C 587.31 399.00 588.59 395.45 589.57 392.32 C 586.79 391.31 583.93 390.60 581.04 390.04 C 581.46 388.11 581.89 386.19 582.34 384.27 Z"
     id="path120" />
  <path
     fill="#0f194e"
     d=" M 51.78 388.61 C 53.92 388.06 56.06 387.50 58.21 386.96 C 61.05 390.30 63.10 394.54 62.60 399.03 C 62.37 404.56 57.16 408.33 52.16 409.43 C 47.52 410.30 41.87 410.42 38.48 406.55 C 34.92 402.82 35.01 397.36 35.48 392.57 C 37.61 391.97 39.75 391.44 41.92 391.04 C 40.60 394.11 39.00 397.85 41.00 401.00 C 44.72 405.99 53.31 404.17 56.67 399.64 C 59.29 395.26 55.65 390.60 51.78 388.61 Z"
     id="path122" />
  <path
     d="m 355.29,390.46 c 169.05,0.03 0,0 169.05,0.03 -16.79,25.25 0,0 -16.79,25.25 -65.11,0.01 -43.41,0.03 -65.11,0.01 -0.1,28.65 0,0 0,85.96 l -32.22,0.04 -0.31921,-85.65168 L 355.31,415.78 c -0.02,-25.32 0,0 -0.02,-25.32 z"
     id="path124"
     inkscape:connector-curvature="0"
     style="fill:#3e4da1"
     sodipodi:nodetypes="ccccccccc" />
  <path
     d="m 103.36,390.6 c 10.29,0 0,0 30.85,0.02 L 161.55738,429.81672 187.6,390.59 l 31.32,0 -74.88,111.6 -15.76,-23.26 18.61755,-26.87178 z"
     id="path126"
     inkscape:connector-curvature="0"
     style="fill:#3e4da1"
     sodipodi:nodetypes="ccccccccc" />
  <path
     d="m 223.89,390.61 c 86.72,-0.05 0,0 86.72,-0.05 0,25.2 0,0 0,25.2 -54.11,0.01 0,0 -54.11,0.01 -0.04,85.92 0,0 -0.04,85.92 -32.57,0 0,0 -32.57,0 0,-111.08 0,0 0,-111.08 z"
     id="path128"
     inkscape:connector-curvature="0"
     style="fill:#3e4da1"
     sodipodi:nodetypes="ccccccc" />
  <path
     d="m 531.19,390.54 c 31.55,-0.05 23.27521,0.10968 31.55,-0.05 -74.5,111.25 0,0 -74.5,111.25 -39.84,0.02 0,0 -39.84,0.02 0.01,-25.49 0.08,-16.99 0.01,-25.49 8.51,0.01 25.54,0.02 25.54,0.02 14.77,-24.15 0,0 14.77,-24.15 -21.22,-30.85 -13.84,-20.78 -21.22,-30.85 10.34,-0.09 0,0 31.03,-0.03 6.29,8.7 0,0 6.29,8.7 26.37,-39.42 0,0 26.37,-39.42 z"
     id="path130"
     inkscape:connector-curvature="0"
     style="fill:#3e4da1"
     sodipodi:nodetypes="ccccccccccc" />
  <path
     fill="#ffffff"
     d=" M 593.88 393.28 C 596.58 393.80 599.26 394.44 601.94 395.07 C 601.59 397.44 600.69 399.67 599.20 401.57 C 597.28 401.33 595.21 401.16 593.74 399.74 C 593.04 397.63 593.71 395.41 593.88 393.28 Z"
     id="path132" />
  <path
     fill="#0f194e"
     d=" M 572.21 426.36 C 569.91 419.34 574.26 410.09 582.12 409.36 C 588.32 409.12 595.24 411.88 598.28 417.59 C 600.18 423.25 598.18 429.56 593.84 433.56 C 591.80 432.84 589.77 432.08 587.77 431.29 C 591.10 429.58 593.68 426.77 594.42 423.03 C 592.45 417.08 584.45 413.41 579.00 416.91 C 575.23 419.56 576.55 424.53 577.85 428.18 C 575.97 427.55 574.09 426.93 572.21 426.36 Z"
     id="path134" />
  <path
     fill="#0f194e"
     d=" M 41.27 420.55 C 49.58 417.42 58.00 414.61 66.31 411.48 C 66.91 413.38 67.51 415.29 68.05 417.22 C 64.44 418.48 60.86 419.83 57.23 421.03 C 58.20 424.00 59.26 426.94 60.33 429.87 C 64.03 428.65 67.69 427.30 71.36 425.97 C 72.05 427.79 72.75 429.60 73.47 431.42 C 65.26 434.61 56.87 437.34 48.65 440.50 C 47.91 438.63 47.18 436.75 46.44 434.88 C 49.51 433.80 52.57 432.71 55.67 431.73 C 54.74 428.91 53.98 426.01 52.64 423.36 C 49.52 423.09 46.46 425.24 43.38 426.01 C 42.67 424.18 41.98 422.36 41.27 420.55 Z"
     id="path136" />
  <path
     fill="#0f194e"
     d=" M 566.25 435.33 C 567.07 433.63 567.88 431.93 568.66 430.22 C 576.63 433.92 584.66 437.47 592.70 441.01 C 591.96 442.74 591.23 444.47 590.50 446.21 C 585.50 444.39 580.87 441.71 575.82 440.03 C 579.22 445.12 582.97 449.96 586.55 454.93 C 585.65 456.80 584.79 458.70 583.96 460.61 C 575.86 457.26 567.95 453.47 559.90 450.00 C 560.59 448.20 561.32 446.42 562.03 444.64 C 567.36 447.01 572.68 449.44 578.05 451.75 C 574.61 445.94 570.05 440.90 566.25 435.33 Z"
     id="path138" />
  <path
     fill="#0f194e"
     d=" M 52.01 448.87 C 59.87 444.97 67.82 441.27 75.72 437.45 C 76.63 439.22 77.63 440.95 78.63 442.68 C 73.14 444.93 67.74 447.47 62.59 450.41 C 69.22 451.08 75.86 451.33 82.50 451.73 C 83.42 453.43 84.27 455.16 85.08 456.92 C 77.17 460.86 68.96 464.24 61.28 468.64 C 60.51 466.76 59.75 464.88 59.02 462.99 C 63.75 460.68 68.64 458.66 73.17 455.97 C 67.02 455.62 60.89 454.92 54.74 454.62 C 53.83 452.70 52.91 450.79 52.01 448.87 Z"
     id="path140" />
  <path
     fill="#0f194e"
     d=" M 554.08 459.92 C 560.56 463.02 566.66 466.84 572.92 470.36 C 574.14 468.20 575.35 466.04 576.58 463.88 C 578.03 464.61 579.47 465.37 580.94 466.11 C 577.57 472.15 574.05 478.10 570.74 484.17 C 569.22 483.50 567.72 482.80 566.22 482.10 C 567.48 479.90 568.75 477.70 569.99 475.49 C 563.84 471.85 557.54 468.47 551.33 464.92 C 552.26 463.26 553.18 461.59 554.08 459.92 Z"
     id="path142" />
  <path
     fill="#0f194e"
     d=" M 72.54 477.88 C 78.71 474.24 84.78 470.44 90.98 466.86 C 91.96 468.55 92.95 470.23 93.95 471.92 C 87.73 475.50 81.66 479.31 75.50 482.98 C 76.82 485.08 78.13 487.21 79.48 489.30 C 78.05 490.17 76.62 491.03 75.19 491.89 C 71.62 485.91 68.00 479.95 64.39 474.00 C 65.78 473.17 67.16 472.35 68.54 471.52 C 69.87 473.64 71.17 475.78 72.54 477.88 Z"
     id="path144" />
  <path
     d="m 167.68,476.38 50.15,-0.01 c 0,25.29 0,25.29 0,25.29 -66.82,-0.04 0,0 -66.82,-0.04 z"
     id="path146"
     inkscape:connector-curvature="0"
     style="fill:#3e4da1"
     sodipodi:nodetypes="ccccc" />
  <path
     d="m 262.77,476.46 c 16.96,-0.24 0,0 50.89,-0.12 -0.01,25.35 0,0 -0.01,25.35 -50.88,-0.11 0,0 -50.88,-0.11 0,-25.12 0.06,-16.75 0,-25.12 z"
     id="path148"
     inkscape:connector-curvature="0"
     style="fill:#3e4da1"
     sodipodi:nodetypes="ccccc" />
  <path
     d="M 352.72251,476.07167 403.76,476.25 l -0.01,25.51 -51.03,-0.12 z"
     id="path150"
     inkscape:connector-curvature="0"
     style="fill:#3e4da1"
     sodipodi:nodetypes="ccccc" />
  <path
     fill="#0f194e"
     d=" M 535.81 489.09 C 539.00 484.35 542.13 479.57 545.60 475.04 C 552.72 480.07 559.99 484.89 567.19 489.82 C 564.19 494.64 560.78 499.18 557.69 503.93 C 556.34 503.04 554.93 502.20 553.85 500.99 C 555.69 497.85 557.90 494.94 559.95 491.94 C 558.59 491.05 557.22 490.15 555.88 489.26 C 553.92 492.09 551.97 494.92 550.01 497.75 C 548.65 496.83 547.31 495.93 545.96 495.03 C 547.91 492.20 549.82 489.36 551.80 486.55 C 549.94 485.17 548.04 483.86 546.15 482.55 C 544.05 485.60 541.96 488.66 539.92 491.75 C 538.54 490.86 537.18 489.98 535.81 489.09 Z"
     id="path152" />
  <path
     fill="#0f194e"
     d=" M 98.70 479.03 C 99.99 480.85 101.31 482.65 102.67 484.43 C 101.29 487.57 99.93 490.72 98.62 493.89 C 102.10 493.59 105.58 493.18 109.07 493.39 C 110.11 494.93 111.16 496.48 112.19 498.05 C 107.13 498.63 102.05 498.90 96.99 499.43 C 95.09 504.22 93.23 509.03 91.26 513.80 C 89.96 511.88 88.63 510.00 87.28 508.13 C 88.60 505.21 89.84 502.26 90.96 499.26 C 87.64 499.40 84.33 499.79 81.01 499.79 C 79.78 498.02 78.50 496.29 77.22 494.57 C 82.39 494.51 87.54 494.13 92.69 493.68 C 94.60 488.76 96.50 483.83 98.70 479.03 Z"
     id="path154" />
  <path
     fill="#0f194e"
     d=" M 525.62 501.96 C 526.85 500.43 528.08 498.90 529.33 497.39 C 534.97 501.79 540.41 506.44 546.03 510.87 C 547.59 508.92 549.17 507.00 550.79 505.10 C 552.04 506.12 553.29 507.14 554.56 508.15 C 550.09 513.49 545.88 519.04 541.24 524.25 C 540.07 523.31 538.90 522.39 537.72 521.49 C 539.12 519.36 540.68 517.35 542.21 515.32 C 536.62 510.93 531.19 506.36 525.62 501.96 Z"
     id="path156" />
  <path
     fill="#0f194e"
     d=" M 93.79 516.90 C 101.53 514.31 109.14 511.33 116.94 508.94 C 121.66 507.51 124.86 511.87 127.43 515.04 C 126.08 516.23 124.74 517.43 123.40 518.64 C 121.90 516.71 120.18 514.95 118.03 513.75 C 115.01 520.64 112.37 527.70 109.31 534.59 C 107.96 532.96 106.59 531.37 105.18 529.82 C 106.90 525.47 108.88 521.23 110.56 516.87 C 106.28 518.32 102.06 519.90 97.85 521.54 C 96.50 519.99 95.15 518.44 93.79 516.90 Z"
     id="path158" />
  <path
     d=" M 292.07 548.90 C 294.01 543.62 300.69 541.06 305.80 543.13 C 310.04 544.36 312.29 548.93 312.51 553.06 C 312.84 557.98 312.55 563.40 309.44 567.48 C 305.81 572.20 298.98 573.37 293.52 571.69 C 293.54 569.95 293.54 568.22 293.54 566.50 C 296.40 566.85 299.55 567.78 302.23 566.26 C 304.59 565.22 305.35 562.57 306.26 560.40 C 303.24 561.25 300.07 563.16 296.92 561.67 C 291.64 560.17 290.33 553.48 292.07 548.90 Z"
     id="path160"
     fill="#0f194e" />
  <path
     d=" M 419.13 543.22 C 423.32 541.73 428.36 542.29 431.92 545.04 C 434.03 546.61 433.95 549.46 433.59 551.80 C 432.94 553.85 430.86 554.85 429.27 556.06 C 431.88 557.53 434.60 559.69 434.59 563.00 C 435.23 567.55 431.25 571.33 427.02 572.02 C 421.86 573.30 414.59 571.82 412.90 566.04 C 411.54 562.25 414.46 558.87 417.64 557.25 C 415.60 555.70 413.60 553.74 413.40 551.02 C 412.86 547.36 415.83 544.23 419.13 543.22 Z"
     id="path162"
     fill="#0f194e" />
  <path
     d=" M 240.08 543.16 C 241.87 543.11 243.67 543.09 245.47 543.10 C 245.45 551.08 245.44 559.07 245.47 567.06 C 247.24 567.07 249.02 567.07 250.80 567.09 C 250.81 568.65 250.81 570.21 250.82 571.79 C 245.05 571.81 239.29 571.77 233.52 571.82 C 233.52 570.21 233.53 568.61 233.55 567.02 C 235.32 567.04 237.10 567.07 238.89 567.11 C 238.94 562.10 238.89 557.10 238.93 552.10 C 237.14 552.09 235.34 552.08 233.55 552.08 C 233.53 550.51 233.52 548.94 233.50 547.37 C 236.45 547.63 239.46 546.28 240.08 543.16 Z"
     id="path164"
     fill="#0f194e" />
  <path
     d=" M 354.28 543.06 C 360.35 543.11 366.42 543.10 372.49 543.07 C 372.50 544.85 372.51 546.64 372.53 548.44 C 368.47 548.43 364.40 548.43 360.34 548.44 C 360.34 550.01 360.35 551.58 360.36 553.16 C 364.43 553.20 369.46 553.27 371.98 557.06 C 374.92 561.84 372.94 569.23 367.51 571.28 C 362.93 573.39 357.88 572.20 353.30 570.79 C 353.26 568.51 353.25 566.24 353.26 563.97 C 356.43 566.05 360.42 568.34 364.25 566.55 C 367.69 565.42 367.55 559.88 364.03 558.96 C 360.84 558.19 357.45 558.64 354.24 559.16 C 354.29 553.79 354.24 548.42 354.28 543.06 Z"
     id="path166"
     fill="#0f194e" />
  <path
     d=" M 299.67 547.44 C 300.95 547.44 302.28 547.14 303.53 547.56 C 305.96 549.38 305.63 552.75 306.43 555.38 C 305.38 558.04 302.37 557.27 300.10 557.41 C 299.21 555.96 298.39 554.49 297.59 553.01 C 298.22 551.13 298.89 549.26 299.67 547.44 Z"
     id="path168"
     fill="#ffffff" />
  <path
     d=" M 419.23 549.99 C 420.67 547.79 423.62 546.20 426.07 547.82 C 428.69 549.37 427.06 552.54 426.18 554.66 C 423.56 553.60 420.81 552.49 419.23 549.99 Z"
     id="path170"
     fill="#ffffff" />
  <path
     d=" M 420.94 558.74 C 423.82 559.81 426.88 560.94 428.54 563.73 C 428.24 564.45 427.62 565.90 427.31 566.62 C 425.18 567.63 422.29 568.35 420.45 566.40 C 418.18 564.32 419.51 560.91 420.94 558.74 Z"
     id="path172"
     fill="#ffffff" />
</svg>
